–-Structure-and-Performance-of-U.S.-Property-Liability-Insurance-Industry-Data-Analysis.R
…
# Group by year and apply winsorization to numeric columns
FirmYearData_winsorized <- FirmYearData %>%
  group_by(year) %>%
  mutate(across(all_of(numeric_columns), ~ {
    lower_bound <- quantile(., lower_percentile)
    upper_bound <- quantile(., upper_percentile)
    replace(., . < lower_bound, lower_bound)
    replace(., . > upper_bound, upper_bound)
  }))

# Print the winsorized data
print(FirmYearData_winsorized)

## # A tibble: 34,383 × 14
## # Groups:   year [24]
##     year cocode org_form  total_assets dividends loss_adj_expenses loss_incurred
##    <int>  <int> <chr>            <dbl>     <dbl>             <dbl>         <dbl>
##  1  1996  10007 Stock         10665525         0           1284897       5236989
##  2  1996  10011 Reciproc…     12067888         0            978860       3495350
##  3  1996  10014 Stock        206583832    177300           2070057      23404336
##  4  1996  10017 Stock         35611032         0           2292540      13497355
##  5  1996  10020 RRG           28977833         0           5063626       1958312
##  6  1996  10022 Stock         47818157         0           2544845      13799015
##  7  1996  10024 Stock          5805500     42609            382235       1217679
##  8  1996  10025 Mutual         1376006         0             49711        369402
##  9  1996  10027 Stock          4529765         0             77034        309256
## 10  1996  10030 Stock         37718679     54200            432696       2004094
## # ℹ 34,373 more rows
## # ℹ 7 more variables: net_income <dbl>, net_investment_income <dbl>,
## #   other_uw_expenses <dbl>, phs <dbl>, total_liab <dbl>,
## #   total_prem_earned <dbl>, distribution_system <chr>
…
# Group by year and lob, and apply winsorization to numeric columns
FirmLineYearData_winsorized <- FirmLineYearData %>%
  group_by(year, lob) %>%
  mutate(across(all_of(numeric_columns), ~ {
    lower_bound <- quantile(., lower_percentile)
    upper_bound <- quantile(., upper_percentile)
    replace(., . < lower_bound, lower_bound)
    replace(., . > upper_bound, upper_bound)
  }))
print(FirmLineYearData_winsorized)

## # A tibble: 183,038 × 7
## # Groups:   year, lob [463]
##     year cocode lob                dpw reinsurance_assumed    npw insurance_type
##    <int>  <int> <chr>            <dbl>               <dbl>  <dbl> <chr>         
##  1  1996  10007 Personal Auto … 1.81e6                   0 1.77e6 Personal      
##  2  1996  10011 Workers' Compe… 4.00e6                   0 3.63e6 Commercial    
##  3  1996  10014 Allied          1.95e7                   0 1.03e7 Commercial    
##  4  1996  10014 Boiler and Mac… 1.56e6              274649 1.24e6 Commercial    
##  5  1996  10014 Burglary and T… 9.69e5               17500 8.77e5 Commercial    
##  6  1996  10014 Commercial Mul… 2.34e7              573491 1.17e7 Commercial    
##  7  1996  10014 Financial       2.77e6              649452 1.93e6 Commercial    
##  8  1996  10014 Homeowners      9.30e5                   0 8.82e5 Personal      
##  9  1996  10014 Inland Marine   2.55e7                6381 1.60e7 Commercial    
## 10  1996  10014 Ocean Marine    8.97e6             1566760 7.58e6 Commercial    
## # ℹ 183,028 more rows
…
